pycqed/measurement/openql_experiments/output_cc_s5_direct_iq/infinity_job.vcd
$date today $end
$timescale 1 ns $end
$scope module kernel $end
$var string 20 0 kernel $end
$upscope $end
$scope module qubits $end
$var string 20 1 q0 $end
$var string 20 2 q1 $end
$var string 20 3 q2 $end
$var string 20 4 q3 $end
$var string 20 5 q4 $end
$upscope $end
$scope module signals $end
$var string 20 6 ro_1-0 $end
$var string 20 7 ro_1-1 $end
$var string 20 8 ro_1-2 $end
$var string 20 9 ro_1-3 $end
$var string 20 10 ro_1-4 $end
$var string 20 11 ro_1-5 $end
$var string 20 12 ro_1-6 $end
$var string 20 13 ro_1-7 $end
$var string 20 14 ro_1-8 $end
$var string 20 15 ro_2-0 $end
$var string 20 16 ro_2-1 $end
$var string 20 17 ro_2-2 $end
$var string 20 18 ro_2-3 $end
$var string 20 19 ro_2-4 $end
$var string 20 20 ro_2-5 $end
$var string 20 21 ro_2-6 $end
$var string 20 22 ro_2-7 $end
$var string 20 23 ro_2-8 $end
$var string 20 24 mw_0-0 $end
$var string 20 25 mw_0-1 $end
$var string 20 26 mw_0-2 $end
$var string 20 27 mw_0-3 $end
$var string 20 28 mw_1-0 $end
$var string 20 29 mw_1-1 $end
$var string 20 30 mw_1-2 $end
$var string 20 31 mw_1-3 $end
$var string 20 32 flux_0-0 $end
$var string 20 33 flux_0-1 $end
$var string 20 34 flux_0-2 $end
$var string 20 35 flux_0-3 $end
$var string 20 36 flux_0-4 $end
$var string 20 37 flux_0-5 $end
$var string 20 38 flux_0-6 $end
$var string 20 39 flux_0-7 $end
$upscope $end
$scope module codewords $end
$var string 20 40 ro_1 $end
$var string 20 41 ro_2 $end
$var string 20 42 mw_0 $end
$var string 20 43 mw_1 $end
$var string 20 44 flux_0 $end
$upscope $end
$enddefinitions $end
#0
sdefault_1 0
#20
sprepz 1
s 40
s 41
s 42
s 43
s 44
#40
sprepz 2
sprepz 3
sprepz 4
sprepz 5
s 40
s 41
s 42
s 43
s 44
#150020
sry90 q0 1
s4=[ry90 q0-mw_0:0-i,ry90 q0-mw_0:0-q] 24
s 40
s 41
s0x80000004 42
s 43
s 44
#150040
sCPhsae_2 0
s 1
s 2
s 3
s 4
s 5
s 24
s 42
#150060
ssf_cz_se q0 1
ssf_cz_nw q2 3
s2=[flux-0-0] 32
s256=[flux-0-2] 34
s 40
s 41
s 42
s 43
s0x80000102 44
#150140
sRot_3 0
s 1
s 3
s 32
s 34
s 44
#150160
srxm90 1
s5=[rxm90-mw_0:0-i,rxm90-mw_0:0-q] 24
s 40
s 41
s0x80000005 42
s 43
s 44
#150180
smeasure 1
smeasure 2
smeasure 3
smeasure 4
smeasure 5
s131072=[dummy] 6
s262144=[dummy] 7
s524288=[dummy] 8
s1048576=[dummy] 9
s131072=[dummy] 15
s 24
s0x001f0000 40
s0x00030000 41
s 42
s 43
s 44
#152180
s 0
s 1
s 2
s 3
s 4
s 5
s 6
s 7
s 8
s 9
s 15
s 40
s 41
