pycqed/measurement/openql_experiments/output_cc_s5_direct_iq/infinity_job.vcd
$date today $end
$timescale 1 ns $end
$scope module kernel $end
$var string 20 0 kernel $end
$upscope $end
$scope module qubits $end
$var string 20 1 q0 $end
$var string 20 2 q1 $end
$var string 20 3 q2 $end
$var string 20 4 q3 $end
$var string 20 5 q4 $end
$upscope $end
$scope module sd.signal $end
$var string 20 6 ro_1-0 $end
$var string 20 7 ro_1-1 $end
$var string 20 8 ro_1-2 $end
$var string 20 9 ro_1-3 $end
$var string 20 10 ro_1-4 $end
$var string 20 11 ro_1-5 $end
$var string 20 12 ro_1-6 $end
$var string 20 13 ro_1-7 $end
$var string 20 14 ro_1-8 $end
$var string 20 15 ro_2-0 $end
$var string 20 16 ro_2-1 $end
$var string 20 17 ro_2-2 $end
$var string 20 18 ro_2-3 $end
$var string 20 19 ro_2-4 $end
$var string 20 20 ro_2-5 $end
$var string 20 21 ro_2-6 $end
$var string 20 22 ro_2-7 $end
$var string 20 23 ro_2-8 $end
$var string 20 24 mw_0-0 $end
$var string 20 25 mw_0-1 $end
$var string 20 26 mw_0-2 $end
$var string 20 27 mw_0-3 $end
$var string 20 28 mw_1-0 $end
$var string 20 29 mw_1-1 $end
$var string 20 30 mw_1-2 $end
$var string 20 31 mw_1-3 $end
$var string 20 32 flux_0-0 $end
$var string 20 33 flux_0-1 $end
$var string 20 34 flux_0-2 $end
$var string 20 35 flux_0-3 $end
$var string 20 36 flux_0-4 $end
$var string 20 37 flux_0-5 $end
$var string 20 38 flux_0-6 $end
$var string 20 39 flux_0-7 $end
$upscope $end
$scope module codewords $end
$var string 20 40 ro_1 $end
$var string 20 41 ro_2 $end
$var string 20 42 mw_0 $end
$var string 20 43 mw_1 $end
$var string 20 44 flux_0 $end
$upscope $end
$enddefinitions $end
#0
spost_select_block 0
sprepz 1
sprepz 2
sprepz 3
sprepz 4
sprepz 5
s 40
s 41
s 42
s 43
s 44
#150000
si 1
si 2
si 3
si 4
si 5
s 40
s 41
s 42
s 43
s 44
#150020
si 1
si 2
si 3
si 4
si 5
s 40
s 41
s 42
s 43
s 44
#150040
smeasure 1
smeasure 2
smeasure 3
smeasure 4
smeasure 5
s196608=[dummy] 6
s327680=[dummy] 7
s589824=[dummy] 8
s1114112=[dummy] 9
s196608=[dummy] 15
s0x001f0000 40
s0x00030000 41
s 42
s 43
s 44
#151040
si 1
si 2
si 3
si 4
si 5
s 6
s 7
s 8
s 9
s 15
s 40
s 41
s 42
s 43
s 44
#151060
srad0 0
srx180 1
srx180 2
srx180 3
srx180 4
srx180 5
s2147483656=[{gateName}-{instrumentName}:{instrumentGroup}-i,{gateName}-{instrumentName}:{instrumentGroup}-q] 24
s2147484672=[{gateName}-{instrumentName}:{instrumentGroup}-i,{gateName}-{instrumentName}:{instrumentGroup}-q] 25
s2148007936=[{gateName}-{instrumentName}:{instrumentGroup}-i,{gateName}-{instrumentName}:{instrumentGroup}-q] 26
s2214592512=[{gateName}-{instrumentName}:{instrumentGroup}-i,{gateName}-{instrumentName}:{instrumentGroup}-q] 27
s2147483656=[{gateName}-{instrumentName}:{instrumentGroup}-i,{gateName}-{instrumentName}:{instrumentGroup}-q] 28
s 40
s 41
s0x84080408 42
s0x80000008 43
s 44
#151080
s 1
s 2
s 3
s 4
s 5
s 24
s 25
s 26
s 27
s 28
s 40
s 41
s 42
s 43
s 44
#153080
srx180 1
srx180 2
srx180 3
srx180 4
srx180 5
s2147483656=[{gateName}-{instrumentName}:{instrumentGroup}-i,{gateName}-{instrumentName}:{instrumentGroup}-q] 24
s2147484672=[{gateName}-{instrumentName}:{instrumentGroup}-i,{gateName}-{instrumentName}:{instrumentGroup}-q] 25
s2148007936=[{gateName}-{instrumentName}:{instrumentGroup}-i,{gateName}-{instrumentName}:{instrumentGroup}-q] 26
s2214592512=[{gateName}-{instrumentName}:{instrumentGroup}-i,{gateName}-{instrumentName}:{instrumentGroup}-q] 27
s2147483656=[{gateName}-{instrumentName}:{instrumentGroup}-i,{gateName}-{instrumentName}:{instrumentGroup}-q] 28
s 40
s 41
s0x84080408 42
s0x80000008 43
s 44
#153100
smeasure 1
smeasure 2
smeasure 3
smeasure 4
smeasure 5
s196608=[dummy] 6
s327680=[dummy] 7
s589824=[dummy] 8
s1114112=[dummy] 9
s196608=[dummy] 15
s 24
s 25
s 26
s 27
s 28
s0x001f0000 40
s0x00030000 41
s 42
s 43
s 44
#154100
s 1
s 2
s 3
s 4
s 5
s 6
s 7
s 8
s 9
s 15
s 40
s 41
s 42
s 43
s 44
#254100
srad1 0
srx180 1
srx180 2
srx180 3
srx180 4
srx180 5
s2147483656=[{gateName}-{instrumentName}:{instrumentGroup}-i,{gateName}-{instrumentName}:{instrumentGroup}-q] 24
s2147484672=[{gateName}-{instrumentName}:{instrumentGroup}-i,{gateName}-{instrumentName}:{instrumentGroup}-q] 25
s2148007936=[{gateName}-{instrumentName}:{instrumentGroup}-i,{gateName}-{instrumentName}:{instrumentGroup}-q] 26
s2214592512=[{gateName}-{instrumentName}:{instrumentGroup}-i,{gateName}-{instrumentName}:{instrumentGroup}-q] 27
s2147483656=[{gateName}-{instrumentName}:{instrumentGroup}-i,{gateName}-{instrumentName}:{instrumentGroup}-q] 28
s 40
s 41
s0x84080408 42
s0x80000008 43
s 44
#254120
s 1
s 2
s 3
s 4
s 5
s 24
s 25
s 26
s 27
s 28
s 40
s 41
s 42
s 43
s 44
#256120
srx180 1
srx180 2
srx180 3
srx180 4
srx180 5
s2147483656=[{gateName}-{instrumentName}:{instrumentGroup}-i,{gateName}-{instrumentName}:{instrumentGroup}-q] 24
s2147484672=[{gateName}-{instrumentName}:{instrumentGroup}-i,{gateName}-{instrumentName}:{instrumentGroup}-q] 25
s2148007936=[{gateName}-{instrumentName}:{instrumentGroup}-i,{gateName}-{instrumentName}:{instrumentGroup}-q] 26
s2214592512=[{gateName}-{instrumentName}:{instrumentGroup}-i,{gateName}-{instrumentName}:{instrumentGroup}-q] 27
s2147483656=[{gateName}-{instrumentName}:{instrumentGroup}-i,{gateName}-{instrumentName}:{instrumentGroup}-q] 28
s 40
s 41
s0x84080408 42
s0x80000008 43
s 44
#256140
smeasure 1
smeasure 2
smeasure 3
smeasure 4
smeasure 5
s196608=[dummy] 6
s327680=[dummy] 7
s589824=[dummy] 8
s1114112=[dummy] 9
s196608=[dummy] 15
s 24
s 25
s 26
s 27
s 28
s0x001f0000 40
s0x00030000 41
s 42
s 43
s 44
#257140
s 1
s 2
s 3
s 4
s 5
s 6
s 7
s 8
s 9
s 15
s 40
s 41
s 42
s 43
s 44
#357140
srad2 0
srx180 1
srx180 2
srx180 3
srx180 4
srx180 5
s2147483656=[{gateName}-{instrumentName}:{instrumentGroup}-i,{gateName}-{instrumentName}:{instrumentGroup}-q] 24
s2147484672=[{gateName}-{instrumentName}:{instrumentGroup}-i,{gateName}-{instrumentName}:{instrumentGroup}-q] 25
s2148007936=[{gateName}-{instrumentName}:{instrumentGroup}-i,{gateName}-{instrumentName}:{instrumentGroup}-q] 26
s2214592512=[{gateName}-{instrumentName}:{instrumentGroup}-i,{gateName}-{instrumentName}:{instrumentGroup}-q] 27
s2147483656=[{gateName}-{instrumentName}:{instrumentGroup}-i,{gateName}-{instrumentName}:{instrumentGroup}-q] 28
s 40
s 41
s0x84080408 42
s0x80000008 43
s 44
#357160
s 1
s 2
s 3
s 4
s 5
s 24
s 25
s 26
s 27
s 28
s 40
s 41
s 42
s 43
s 44
#359160
srx180 1
srx180 2
srx180 3
srx180 4
srx180 5
s2147483656=[{gateName}-{instrumentName}:{instrumentGroup}-i,{gateName}-{instrumentName}:{instrumentGroup}-q] 24
s2147484672=[{gateName}-{instrumentName}:{instrumentGroup}-i,{gateName}-{instrumentName}:{instrumentGroup}-q] 25
s2148007936=[{gateName}-{instrumentName}:{instrumentGroup}-i,{gateName}-{instrumentName}:{instrumentGroup}-q] 26
s2214592512=[{gateName}-{instrumentName}:{instrumentGroup}-i,{gateName}-{instrumentName}:{instrumentGroup}-q] 27
s2147483656=[{gateName}-{instrumentName}:{instrumentGroup}-i,{gateName}-{instrumentName}:{instrumentGroup}-q] 28
s 40
s 41
s0x84080408 42
s0x80000008 43
s 44
#359180
smeasure 1
smeasure 2
smeasure 3
smeasure 4
smeasure 5
s196608=[dummy] 6
s327680=[dummy] 7
s589824=[dummy] 8
s1114112=[dummy] 9
s196608=[dummy] 15
s 24
s 25
s 26
s 27
s 28
s0x001f0000 40
s0x00030000 41
s 42
s 43
s 44
#360180
s 1
s 2
s 3
s 4
s 5
s 6
s 7
s 8
s 9
s 15
s 40
s 41
s 42
s 43
s 44
#460180
srad3 0
srx180 1
srx180 2
srx180 3
srx180 4
srx180 5
s2147483656=[{gateName}-{instrumentName}:{instrumentGroup}-i,{gateName}-{instrumentName}:{instrumentGroup}-q] 24
s2147484672=[{gateName}-{instrumentName}:{instrumentGroup}-i,{gateName}-{instrumentName}:{instrumentGroup}-q] 25
s2148007936=[{gateName}-{instrumentName}:{instrumentGroup}-i,{gateName}-{instrumentName}:{instrumentGroup}-q] 26
s2214592512=[{gateName}-{instrumentName}:{instrumentGroup}-i,{gateName}-{instrumentName}:{instrumentGroup}-q] 27
s2147483656=[{gateName}-{instrumentName}:{instrumentGroup}-i,{gateName}-{instrumentName}:{instrumentGroup}-q] 28
s 40
s 41
s0x84080408 42
s0x80000008 43
s 44
#460200
s 1
s 2
s 3
s 4
s 5
s 24
s 25
s 26
s 27
s 28
s 40
s 41
s 42
s 43
s 44
#462200
srx180 1
srx180 2
srx180 3
srx180 4
srx180 5
s2147483656=[{gateName}-{instrumentName}:{instrumentGroup}-i,{gateName}-{instrumentName}:{instrumentGroup}-q] 24
s2147484672=[{gateName}-{instrumentName}:{instrumentGroup}-i,{gateName}-{instrumentName}:{instrumentGroup}-q] 25
s2148007936=[{gateName}-{instrumentName}:{instrumentGroup}-i,{gateName}-{instrumentName}:{instrumentGroup}-q] 26
s2214592512=[{gateName}-{instrumentName}:{instrumentGroup}-i,{gateName}-{instrumentName}:{instrumentGroup}-q] 27
s2147483656=[{gateName}-{instrumentName}:{instrumentGroup}-i,{gateName}-{instrumentName}:{instrumentGroup}-q] 28
s 40
s 41
s0x84080408 42
s0x80000008 43
s 44
#462220
smeasure 1
smeasure 2
smeasure 3
smeasure 4
smeasure 5
s196608=[dummy] 6
s327680=[dummy] 7
s589824=[dummy] 8
s1114112=[dummy] 9
s196608=[dummy] 15
s 24
s 25
s 26
s 27
s 28
s0x001f0000 40
s0x00030000 41
s 42
s 43
s 44
#463220
s 1
s 2
s 3
s 4
s 5
s 6
s 7
s 8
s 9
s 15
s 40
s 41
s 42
s 43
s 44
#563220
srad4 0
srx180 1
srx180 2
srx180 3
srx180 4
srx180 5
s2147483656=[{gateName}-{instrumentName}:{instrumentGroup}-i,{gateName}-{instrumentName}:{instrumentGroup}-q] 24
s2147484672=[{gateName}-{instrumentName}:{instrumentGroup}-i,{gateName}-{instrumentName}:{instrumentGroup}-q] 25
s2148007936=[{gateName}-{instrumentName}:{instrumentGroup}-i,{gateName}-{instrumentName}:{instrumentGroup}-q] 26
s2214592512=[{gateName}-{instrumentName}:{instrumentGroup}-i,{gateName}-{instrumentName}:{instrumentGroup}-q] 27
s2147483656=[{gateName}-{instrumentName}:{instrumentGroup}-i,{gateName}-{instrumentName}:{instrumentGroup}-q] 28
s 40
s 41
s0x84080408 42
s0x80000008 43
s 44
#563240
s 1
s 2
s 3
s 4
s 5
s 24
s 25
s 26
s 27
s 28
s 40
s 41
s 42
s 43
s 44
#565240
srx180 1
srx180 2
srx180 3
srx180 4
srx180 5
s2147483656=[{gateName}-{instrumentName}:{instrumentGroup}-i,{gateName}-{instrumentName}:{instrumentGroup}-q] 24
s2147484672=[{gateName}-{instrumentName}:{instrumentGroup}-i,{gateName}-{instrumentName}:{instrumentGroup}-q] 25
s2148007936=[{gateName}-{instrumentName}:{instrumentGroup}-i,{gateName}-{instrumentName}:{instrumentGroup}-q] 26
s2214592512=[{gateName}-{instrumentName}:{instrumentGroup}-i,{gateName}-{instrumentName}:{instrumentGroup}-q] 27
s2147483656=[{gateName}-{instrumentName}:{instrumentGroup}-i,{gateName}-{instrumentName}:{instrumentGroup}-q] 28
s 40
s 41
s0x84080408 42
s0x80000008 43
s 44
#565260
smeasure 1
smeasure 2
smeasure 3
smeasure 4
smeasure 5
s196608=[dummy] 6
s327680=[dummy] 7
s589824=[dummy] 8
s1114112=[dummy] 9
s196608=[dummy] 15
s 24
s 25
s 26
s 27
s 28
s0x001f0000 40
s0x00030000 41
s 42
s 43
s 44
#566260
s 1
s 2
s 3
s 4
s 5
s 6
s 7
s 8
s 9
s 15
s 40
s 41
s 42
s 43
s 44
#666260
srad5 0
srx180 1
srx180 2
srx180 3
srx180 4
srx180 5
s2147483656=[{gateName}-{instrumentName}:{instrumentGroup}-i,{gateName}-{instrumentName}:{instrumentGroup}-q] 24
s2147484672=[{gateName}-{instrumentName}:{instrumentGroup}-i,{gateName}-{instrumentName}:{instrumentGroup}-q] 25
s2148007936=[{gateName}-{instrumentName}:{instrumentGroup}-i,{gateName}-{instrumentName}:{instrumentGroup}-q] 26
s2214592512=[{gateName}-{instrumentName}:{instrumentGroup}-i,{gateName}-{instrumentName}:{instrumentGroup}-q] 27
s2147483656=[{gateName}-{instrumentName}:{instrumentGroup}-i,{gateName}-{instrumentName}:{instrumentGroup}-q] 28
s 40
s 41
s0x84080408 42
s0x80000008 43
s 44
#666280
s 1
s 2
s 3
s 4
s 5
s 24
s 25
s 26
s 27
s 28
s 40
s 41
s 42
s 43
s 44
#668280
srx180 1
srx180 2
srx180 3
srx180 4
srx180 5
s2147483656=[{gateName}-{instrumentName}:{instrumentGroup}-i,{gateName}-{instrumentName}:{instrumentGroup}-q] 24
s2147484672=[{gateName}-{instrumentName}:{instrumentGroup}-i,{gateName}-{instrumentName}:{instrumentGroup}-q] 25
s2148007936=[{gateName}-{instrumentName}:{instrumentGroup}-i,{gateName}-{instrumentName}:{instrumentGroup}-q] 26
s2214592512=[{gateName}-{instrumentName}:{instrumentGroup}-i,{gateName}-{instrumentName}:{instrumentGroup}-q] 27
s2147483656=[{gateName}-{instrumentName}:{instrumentGroup}-i,{gateName}-{instrumentName}:{instrumentGroup}-q] 28
s 40
s 41
s0x84080408 42
s0x80000008 43
s 44
#668300
smeasure 1
smeasure 2
smeasure 3
smeasure 4
smeasure 5
s196608=[dummy] 6
s327680=[dummy] 7
s589824=[dummy] 8
s1114112=[dummy] 9
s196608=[dummy] 15
s 24
s 25
s 26
s 27
s 28
s0x001f0000 40
s0x00030000 41
s 42
s 43
s 44
#669300
s 1
s 2
s 3
s 4
s 5
s 6
s 7
s 8
s 9
s 15
s 40
s 41
s 42
s 43
s 44
#769300
srad6 0
srx180 1
srx180 2
srx180 3
srx180 4
srx180 5
s2147483656=[{gateName}-{instrumentName}:{instrumentGroup}-i,{gateName}-{instrumentName}:{instrumentGroup}-q] 24
s2147484672=[{gateName}-{instrumentName}:{instrumentGroup}-i,{gateName}-{instrumentName}:{instrumentGroup}-q] 25
s2148007936=[{gateName}-{instrumentName}:{instrumentGroup}-i,{gateName}-{instrumentName}:{instrumentGroup}-q] 26
s2214592512=[{gateName}-{instrumentName}:{instrumentGroup}-i,{gateName}-{instrumentName}:{instrumentGroup}-q] 27
s2147483656=[{gateName}-{instrumentName}:{instrumentGroup}-i,{gateName}-{instrumentName}:{instrumentGroup}-q] 28
s 40
s 41
s0x84080408 42
s0x80000008 43
s 44
#769320
s 1
s 2
s 3
s 4
s 5
s 24
s 25
s 26
s 27
s 28
s 40
s 41
s 42
s 43
s 44
#771320
srx180 1
srx180 2
srx180 3
srx180 4
srx180 5
s2147483656=[{gateName}-{instrumentName}:{instrumentGroup}-i,{gateName}-{instrumentName}:{instrumentGroup}-q] 24
s2147484672=[{gateName}-{instrumentName}:{instrumentGroup}-i,{gateName}-{instrumentName}:{instrumentGroup}-q] 25
s2148007936=[{gateName}-{instrumentName}:{instrumentGroup}-i,{gateName}-{instrumentName}:{instrumentGroup}-q] 26
s2214592512=[{gateName}-{instrumentName}:{instrumentGroup}-i,{gateName}-{instrumentName}:{instrumentGroup}-q] 27
s2147483656=[{gateName}-{instrumentName}:{instrumentGroup}-i,{gateName}-{instrumentName}:{instrumentGroup}-q] 28
s 40
s 41
s0x84080408 42
s0x80000008 43
s 44
#771340
smeasure 1
smeasure 2
smeasure 3
smeasure 4
smeasure 5
s196608=[dummy] 6
s327680=[dummy] 7
s589824=[dummy] 8
s1114112=[dummy] 9
s196608=[dummy] 15
s 24
s 25
s 26
s 27
s 28
s0x001f0000 40
s0x00030000 41
s 42
s 43
s 44
#772340
s 1
s 2
s 3
s 4
s 5
s 6
s 7
s 8
s 9
s 15
s 40
s 41
s 42
s 43
s 44
#872340
srad7 0
srx180 1
srx180 2
srx180 3
srx180 4
srx180 5
s2147483656=[{gateName}-{instrumentName}:{instrumentGroup}-i,{gateName}-{instrumentName}:{instrumentGroup}-q] 24
s2147484672=[{gateName}-{instrumentName}:{instrumentGroup}-i,{gateName}-{instrumentName}:{instrumentGroup}-q] 25
s2148007936=[{gateName}-{instrumentName}:{instrumentGroup}-i,{gateName}-{instrumentName}:{instrumentGroup}-q] 26
s2214592512=[{gateName}-{instrumentName}:{instrumentGroup}-i,{gateName}-{instrumentName}:{instrumentGroup}-q] 27
s2147483656=[{gateName}-{instrumentName}:{instrumentGroup}-i,{gateName}-{instrumentName}:{instrumentGroup}-q] 28
s 40
s 41
s0x84080408 42
s0x80000008 43
s 44
#872360
s 1
s 2
s 3
s 4
s 5
s 24
s 25
s 26
s 27
s 28
s 40
s 41
s 42
s 43
s 44
#874360
srx180 1
srx180 2
srx180 3
srx180 4
srx180 5
s2147483656=[{gateName}-{instrumentName}:{instrumentGroup}-i,{gateName}-{instrumentName}:{instrumentGroup}-q] 24
s2147484672=[{gateName}-{instrumentName}:{instrumentGroup}-i,{gateName}-{instrumentName}:{instrumentGroup}-q] 25
s2148007936=[{gateName}-{instrumentName}:{instrumentGroup}-i,{gateName}-{instrumentName}:{instrumentGroup}-q] 26
s2214592512=[{gateName}-{instrumentName}:{instrumentGroup}-i,{gateName}-{instrumentName}:{instrumentGroup}-q] 27
s2147483656=[{gateName}-{instrumentName}:{instrumentGroup}-i,{gateName}-{instrumentName}:{instrumentGroup}-q] 28
s 40
s 41
s0x84080408 42
s0x80000008 43
s 44
#874380
smeasure 1
smeasure 2
smeasure 3
smeasure 4
smeasure 5
s196608=[dummy] 6
s327680=[dummy] 7
s589824=[dummy] 8
s1114112=[dummy] 9
s196608=[dummy] 15
s 24
s 25
s 26
s 27
s 28
s0x001f0000 40
s0x00030000 41
s 42
s 43
s 44
#875380
s 1
s 2
s 3
s 4
s 5
s 6
s 7
s 8
s 9
s 15
s 40
s 41
s 42
s 43
s 44
#975380
srad8 0
srx180 1
srx180 2
srx180 3
srx180 4
srx180 5
s2147483656=[{gateName}-{instrumentName}:{instrumentGroup}-i,{gateName}-{instrumentName}:{instrumentGroup}-q] 24
s2147484672=[{gateName}-{instrumentName}:{instrumentGroup}-i,{gateName}-{instrumentName}:{instrumentGroup}-q] 25
s2148007936=[{gateName}-{instrumentName}:{instrumentGroup}-i,{gateName}-{instrumentName}:{instrumentGroup}-q] 26
s2214592512=[{gateName}-{instrumentName}:{instrumentGroup}-i,{gateName}-{instrumentName}:{instrumentGroup}-q] 27
s2147483656=[{gateName}-{instrumentName}:{instrumentGroup}-i,{gateName}-{instrumentName}:{instrumentGroup}-q] 28
s 40
s 41
s0x84080408 42
s0x80000008 43
s 44
#975400
s 1
s 2
s 3
s 4
s 5
s 24
s 25
s 26
s 27
s 28
s 40
s 41
s 42
s 43
s 44
#977400
srx180 1
srx180 2
srx180 3
srx180 4
srx180 5
s2147483656=[{gateName}-{instrumentName}:{instrumentGroup}-i,{gateName}-{instrumentName}:{instrumentGroup}-q] 24
s2147484672=[{gateName}-{instrumentName}:{instrumentGroup}-i,{gateName}-{instrumentName}:{instrumentGroup}-q] 25
s2148007936=[{gateName}-{instrumentName}:{instrumentGroup}-i,{gateName}-{instrumentName}:{instrumentGroup}-q] 26
s2214592512=[{gateName}-{instrumentName}:{instrumentGroup}-i,{gateName}-{instrumentName}:{instrumentGroup}-q] 27
s2147483656=[{gateName}-{instrumentName}:{instrumentGroup}-i,{gateName}-{instrumentName}:{instrumentGroup}-q] 28
s 40
s 41
s0x84080408 42
s0x80000008 43
s 44
#977420
smeasure 1
smeasure 2
smeasure 3
smeasure 4
smeasure 5
s196608=[dummy] 6
s327680=[dummy] 7
s589824=[dummy] 8
s1114112=[dummy] 9
s196608=[dummy] 15
s 24
s 25
s 26
s 27
s 28
s0x001f0000 40
s0x00030000 41
s 42
s 43
s 44
#978420
s 1
s 2
s 3
s 4
s 5
s 6
s 7
s 8
s 9
s 15
s 40
s 41
s 42
s 43
s 44
#1078420
srad9 0
srx180 1
srx180 2
srx180 3
srx180 4
srx180 5
s2147483656=[{gateName}-{instrumentName}:{instrumentGroup}-i,{gateName}-{instrumentName}:{instrumentGroup}-q] 24
s2147484672=[{gateName}-{instrumentName}:{instrumentGroup}-i,{gateName}-{instrumentName}:{instrumentGroup}-q] 25
s2148007936=[{gateName}-{instrumentName}:{instrumentGroup}-i,{gateName}-{instrumentName}:{instrumentGroup}-q] 26
s2214592512=[{gateName}-{instrumentName}:{instrumentGroup}-i,{gateName}-{instrumentName}:{instrumentGroup}-q] 27
s2147483656=[{gateName}-{instrumentName}:{instrumentGroup}-i,{gateName}-{instrumentName}:{instrumentGroup}-q] 28
s 40
s 41
s0x84080408 42
s0x80000008 43
s 44
#1078440
s 1
s 2
s 3
s 4
s 5
s 24
s 25
s 26
s 27
s 28
s 40
s 41
s 42
s 43
s 44
#1080440
srx180 1
srx180 2
srx180 3
srx180 4
srx180 5
s2147483656=[{gateName}-{instrumentName}:{instrumentGroup}-i,{gateName}-{instrumentName}:{instrumentGroup}-q] 24
s2147484672=[{gateName}-{instrumentName}:{instrumentGroup}-i,{gateName}-{instrumentName}:{instrumentGroup}-q] 25
s2148007936=[{gateName}-{instrumentName}:{instrumentGroup}-i,{gateName}-{instrumentName}:{instrumentGroup}-q] 26
s2214592512=[{gateName}-{instrumentName}:{instrumentGroup}-i,{gateName}-{instrumentName}:{instrumentGroup}-q] 27
s2147483656=[{gateName}-{instrumentName}:{instrumentGroup}-i,{gateName}-{instrumentName}:{instrumentGroup}-q] 28
s 40
s 41
s0x84080408 42
s0x80000008 43
s 44
#1080460
smeasure 1
smeasure 2
smeasure 3
smeasure 4
smeasure 5
s196608=[dummy] 6
s327680=[dummy] 7
s589824=[dummy] 8
s1114112=[dummy] 9
s196608=[dummy] 15
s 24
s 25
s 26
s 27
s 28
s0x001f0000 40
s0x00030000 41
s 42
s 43
s 44
#1081460
s 1
s 2
s 3
s 4
s 5
s 6
s 7
s 8
s 9
s 15
s 40
s 41
s 42
s 43
s 44
#1181460
s 0
